Engine/Binaries/Win32/UE4Game.exe	2017-11-20T05:35:04.647Z
Engine/Extras/Redist/en-us/UE4PrereqSetup_x86.exe	2017-11-20T05:44:29.999Z
Engine/Binaries/ThirdParty/Oculus/OVRPlugin/OVRPlugin/Win32/OVRPlugin.dll	2017-11-20T05:33:43.996Z
Engine/Binaries/ThirdParty/PhysX/Win32/VS2015/PxFoundationPROFILE_x86.dll	2017-11-20T05:34:00.897Z
Engine/Binaries/ThirdParty/PhysX/Win32/VS2015/PxPvdSDKPROFILE_x86.dll	2017-11-20T05:34:00.932Z
Engine/Binaries/ThirdParty/PhysX/Win32/VS2015/PhysX3PROFILE_x86.dll	2017-11-20T05:34:00.861Z
Engine/Binaries/ThirdParty/PhysX/Win32/VS2015/PhysX3CookingPROFILE_x86.dll	2017-11-20T05:34:00.840Z
Engine/Binaries/ThirdParty/PhysX/Win32/VS2015/PhysX3CommonPROFILE_x86.dll	2017-11-20T05:34:00.803Z
Engine/Binaries/ThirdParty/PhysX/Win32/VS2015/APEX_ClothingPROFILE_x86.dll	2017-11-20T05:33:58.171Z
Engine/Binaries/ThirdParty/PhysX/Win32/VS2015/APEX_LegacyPROFILE_x86.dll	2017-11-20T05:33:58.444Z
Engine/Binaries/ThirdParty/PhysX/Win32/VS2015/ApexFrameworkPROFILE_x86.dll	2017-11-20T05:34:00.040Z
Engine/Binaries/ThirdParty/PhysX/Win32/VS2015/NvClothPROFILE_x86.dll	2017-11-20T05:34:00.077Z
Engine/Binaries/ThirdParty/Ogg/Win32/VS2015/libogg.dll	2017-11-20T05:33:47.076Z
Engine/Binaries/ThirdParty/Vorbis/Win32/VS2015/libvorbis.dll	2017-11-20T05:34:09.498Z
Engine/Binaries/ThirdParty/Vorbis/Win32/VS2015/libvorbisfile.dll	2017-11-20T05:34:09.511Z
Engine/Binaries/ThirdParty/OpenVR/OpenVRv1_0_10/Win32/openvr_api.dll	2017-11-20T05:33:48.962Z
BomberBoiz.exe	2017-12-15T11:36:47.454Z
