﻿Log file open, 09/27/18 19:02:42
LogWindows: Failed to load 'aqProf.dll' (GetLastError=126)
LogWindows: File 'aqProf.dll' does not exist
LogWindows: Failed to load 'VSPerf140.dll' (GetLastError=126)
LogWindows: File 'VSPerf140.dll' does not exist
LogWindows: Failed to load 'VtuneApi.dll' (GetLastError=126)
LogWindows: File 'VtuneApi.dll' does not exist
LogWindows: Failed to load 'VtuneApi32e.dll' (GetLastError=126)
LogWindows: File 'VtuneApi32e.dll' does not exist
LogInit: Display: Running engine for game: BomberBoiz
LogInit: Display: Project file not found: ../../../BomberBoiz/BomberBoiz.uproject
LogInit: Display: 	Attempting to find via project info helper.
LogUProjectInfo: Found projects:
LogPlatformFile: Not using cached read wrapper
LogInit: Display: RandInit(-1532858132) SRandInit(-1532858132).
LogTaskGraph: Started task graph with 5 named threads and 17 total threads with 3 sets of task threads.
LogStats: Stats thread started at 0.232908
LogPluginManager: Mounting plugin Paper2D
LogPluginManager: Mounting plugin LightPropagationVolume
LogPluginManager: Mounting plugin FacialAnimation
LogPluginManager: Mounting plugin CharacterAI
LogPluginManager: Mounting plugin HTML5Networking
LogPluginManager: Mounting plugin AvfMedia
LogPluginManager: Mounting plugin ImgMedia
LogPluginManager: Mounting plugin MediaCompositing
LogPluginManager: Mounting plugin WmfMedia
LogPluginManager: Mounting plugin TcpMessaging
LogPluginManager: Mounting plugin UdpMessaging
LogPluginManager: Mounting plugin ActorSequence
LogPluginManager: Mounting plugin OnlineSubsystem
LogPluginManager: Mounting plugin OnlineSubsystemNull
LogPluginManager: Mounting plugin OnlineSubsystemUtils
LogPluginManager: Mounting plugin AndroidPermission
LogPluginManager: Mounting plugin AppleARKit
LogPluginManager: Mounting plugin ArchVisCharacter
LogPluginManager: Mounting plugin CableComponent
LogPluginManager: Mounting plugin CustomMeshComponent
LogPluginManager: Mounting plugin ExampleDeviceProfileSelector
LogPluginManager: Mounting plugin ImmediatePhysics
LogPluginManager: Mounting plugin LocationServicesBPLibrary
LogPluginManager: Mounting plugin MobilePatchingUtils
LogPluginManager: Mounting plugin OculusVR
LogPluginManager: Mounting plugin PhysXVehicles
LogPluginManager: Mounting plugin ProceduralMeshComponent
LogPluginManager: Mounting plugin RuntimePhysXCooking
LogPluginManager: Mounting plugin SteamVR
LogPluginManager: Mounting plugin WindowsMoviePlayer
LogInit: Using libcurl 7.47.1
LogInit:  - built for i386-pc-win32
LogInit:  - supports SSL with OpenSSL/1.0.2g
LogInit:  - supports HTTP deflate (compression) using libz 1.2.8
LogInit:  - other features:
LogInit:      CURL_VERSION_SSL
LogInit:      CURL_VERSION_LIBZ
LogInit:      CURL_VERSION_IPV6
LogInit:      CURL_VERSION_ASYNCHDNS
LogInit:      CURL_VERSION_LARGEFILE
LogInit:      CURL_VERSION_IDN
LogInit:  CurlRequestOptions (configurable via config and command line):
LogInit:  - bVerifyPeer = false  - Libcurl will NOT verify peer certificate
LogInit:  - bUseHttpProxy = false  - Libcurl will NOT use HTTP proxy
LogInit:  - bDontReuseConnections = false  - Libcurl will reuse connections
LogInit:  - CertBundlePath = nullptr  - Libcurl will use whatever was configured at build time.
LogInit: Build: ++UE4+Release-4.18-CL-3754814
LogInit: Engine Version: 4.18.1-3754814+++UE4+Release-4.18
LogInit: Compatible Engine Version: 4.18.0-3709383+++UE4+Release-4.18
LogInit: Net CL: 3709383
LogDevObjectVersion: Number of dev versions registered: 16
LogDevObjectVersion:   Dev-Blueprints (B0D832E4-1F89-4F0D-ACCF-7EB736FD4AA2): 10
LogDevObjectVersion:   Dev-Build (E1C64328-A22C-4D53-A36C-8E866417BD8C): 0
LogDevObjectVersion:   Dev-Core (375EC13C-06E4-48FB-B500-84F0262A717E): 2
LogDevObjectVersion:   Dev-Editor (E4B068ED-F494-42E9-A231-DA0B2E46BB41): 20
LogDevObjectVersion:   Dev-Framework (CFFC743F-43B0-4480-9391-14DF171D2073): 30
LogDevObjectVersion:   Dev-Mobile (B02B49B5-BB20-44E9-A304-32B752E40360): 0
LogDevObjectVersion:   Dev-Networking (A4E4105C-59A1-49B5-A7C5-40C4547EDFEE): 0
LogDevObjectVersion:   Dev-Online (39C831C9-5AE6-47DC-9A44-9C173E1C8E7C): 0
LogDevObjectVersion:   Dev-Physics (78F01B33-EBEA-4F98-B9B4-84EACCB95AA2): 0
LogDevObjectVersion:   Dev-Platform (6631380F-2D4D-43E0-8009-CF276956A95A): 0
LogDevObjectVersion:   Dev-Rendering (12F88B9F-8875-4AFC-A67C-D90C383ABD29): 20
LogDevObjectVersion:   Dev-Sequencer (7B5AE74C-D270-4C10-A958-57980B212A5A): 4
LogDevObjectVersion:   Dev-VR (D7296918-1DD6-4BDD-9DE2-64A83CC13884): 0
LogDevObjectVersion:   Dev-LoadTimes (C2A15278-BFE7-4AFE-6C17-90FF531DF755): 1
LogDevObjectVersion:   Private-Geometry (6EACA3D4-40EC-4CC1-B786-8BED09428FC5): 1
LogDevObjectVersion:   Dev-AnimPhys (29E575DD-E0A3-4627-9D10-D276232CDCEA): 12
LogInit: Compiled (32-bit): Nov 14 2017 02:18:38
LogInit: Compiled with Visual C++: 19.00.24215.01
LogInit: Build Configuration: Development
LogInit: Branch Name: ++UE4+Release-4.18
LogInit: Command line:  
LogInit: Base directory: C:/BomberBois/WindowsNoEditor/Engine/Binaries/Win32/
LogInit: Installed Engine Build: 0
LogInit: Presizing for max 2097152 objects, including 0 objects not considered by GC, pre-allocating 0 bytes for permanent pool.
LogStreaming: Display: Async Loading initialized: Event Driven Loader: true, Async Loading Thread: false
LogInit: Object subsystem initialized
[2018.09.28-02.02.42:205][  0]LogInit: Selected Device Profile: [WindowsNoEditor]
[2018.09.28-02.02.42:205][  0]LogInit: Applying CVar settings loaded from the selected device profile: [WindowsNoEditor]
[2018.09.28-02.02.42:209][  0]LogInit: Computer: JASON-WINDOWS
[2018.09.28-02.02.42:209][  0]LogInit: User: chand
[2018.09.28-02.02.42:209][  0]LogInit: CPU Page size=4096, Cores=6
[2018.09.28-02.02.42:209][  0]LogInit: High frequency timer resolution =2.156252 MHz
[2018.09.28-02.02.42:209][  0]LogMemory: Memory total: Physical=15.9GB (16GB approx) Virtual=4.0GB
[2018.09.28-02.02.42:209][  0]LogMemory: Platform Memory Stats for WindowsNoEditor
[2018.09.28-02.02.42:209][  0]LogMemory: Process Physical Memory: 72.96 MB used, 72.96 MB peak
[2018.09.28-02.02.42:209][  0]LogMemory: Process Virtual Memory: 88.09 MB used, 88.09 MB peak
[2018.09.28-02.02.42:209][  0]LogMemory: Physical Memory: 2449.48 MB used,  13857.41 MB free, 16306.89 MB total
[2018.09.28-02.02.42:209][  0]LogMemory: Virtual Memory: 294.43 MB used,  13857.41 MB free, 4095.88 MB total
[2018.09.28-02.02.42:511][  0]LogInit: Using OS detected language (en-US).
[2018.09.28-02.02.42:512][  0]LogInit: Using OS detected locale (en-US).
[2018.09.28-02.02.42:512][  0]LogTextLocalizationManager: No specific localization for 'en-US' exists, so the 'en' localization will be used.
[2018.09.28-02.02.42:556][  0]LogD3D11RHI: D3D11 adapters:
[2018.09.28-02.02.42:619][  0]LogD3D11RHI:    0. 'NVIDIA GeForce GTX 1070' (Feature Level 11_0)
[2018.09.28-02.02.42:619][  0]LogD3D11RHI:       3072/0/1023 MB DedicatedVideo/DedicatedSystem/SharedSystem, Outputs:1, VendorId:0x10de
[2018.09.28-02.02.42:621][  0]LogD3D11RHI:    1. 'Microsoft Basic Render Driver' (Feature Level 11_0)
[2018.09.28-02.02.42:621][  0]LogD3D11RHI:       0/0/4095 MB DedicatedVideo/DedicatedSystem/SharedSystem, Outputs:0, VendorId:0x1414
[2018.09.28-02.02.42:621][  0]LogD3D11RHI: Chosen D3D11 Adapter: 0
[2018.09.28-02.02.42:626][  0]LogD3D11RHI: Creating new Direct3DDevice
[2018.09.28-02.02.42:626][  0]LogD3D11RHI:     GPU DeviceId: 0x1be1 (for the marketing name, search the web for "GPU Device Id")
[2018.09.28-02.02.42:626][  0]LogWindows: EnumDisplayDevices:
[2018.09.28-02.02.42:626][  0]LogWindows:    0. 'NVIDIA GeForce GTX 1070' (P:1 D:1)
[2018.09.28-02.02.42:626][  0]LogWindows:    1. 'NVIDIA GeForce GTX 1070' (P:0 D:0)
[2018.09.28-02.02.42:626][  0]LogWindows:    2. 'NVIDIA GeForce GTX 1070' (P:0 D:0)
[2018.09.28-02.02.42:626][  0]LogWindows:    3. 'NVIDIA GeForce GTX 1070' (P:0 D:0)
[2018.09.28-02.02.42:626][  0]LogWindows: DebugString: GetVideoDriverDetailsInvalid PrimaryIsNotTheChoosenAdapter GetVideoDriverDetailsInvalid PrimaryIsNotTheChoosenAdapter GetVideoDriverDetailsInvalid PrimaryIsNotTheChoosenAdapter GetVideoDriverDetailsInvalid PrimaryIsNotTheChoosenAdapter FoundDriverCount:0 
[2018.09.28-02.02.42:627][  0]LogD3D11RHI:     Adapter Name: NVIDIA GeForce GTX 1070
[2018.09.28-02.02.42:627][  0]LogD3D11RHI:   Driver Version: Unknown (internal:Unknown, unified:Unknown)
[2018.09.28-02.02.42:627][  0]LogD3D11RHI:      Driver Date: Unknown
[2018.09.28-02.02.42:627][  0]LogRHI: Texture pool is 716 MB (70% of 1024 MB)
[2018.09.28-02.02.42:661][  0]LogD3D11RHI: Async texture creation enabled
[2018.09.28-02.02.42:687][  0]LogD3D11RHI: GPU Timing Frequency: 1000.000000 (Debug: 2 2)
[2018.09.28-02.02.42:745][  0]LogMaterial: Verifying Global Shaders for PCD3D_SM5
[2018.09.28-02.02.42:746][  0]LogSlate: Using Freetype 2.6.0
[2018.09.28-02.02.42:749][  0]LogSlate: SlateFontCache - WITH_FREETYPE: 1, WITH_HARFBUZZ: 1
[2018.09.28-02.02.42:749][  0]LogSlate: SlateFontCache - WITH_FREETYPE: 1, WITH_HARFBUZZ: 1
[2018.09.28-02.02.42:810][  0]LogAssetRegistry: FAssetRegistry took 0.0128 seconds to start up
[2018.09.28-02.02.42:872][  0]LogPackageLocalizationCache: Processed 7 localized package path(s) for 2 prioritized culture(s) in 0.003614 seconds
[2018.09.28-02.02.42:872][  0]LogPakFile: New pak file ../../../BomberBoiz/Content/Paks/BomberBoiz-WindowsNoEditor.pak added to pak precacher.
[2018.09.28-02.02.42:874][  0]LogInit: Selected Device Profile: [WindowsNoEditor]
[2018.09.28-02.02.42:912][  0]LogNetVersion: BomberBoiz , NetCL: 3709383, EngineNetVer: 2, GameNetVer: 0 (Checksum: 2301335220)
[2018.09.28-02.02.42:979][  0]LogInit: WinSock: version 1.1 (2.2), MaxSocks=32767, MaxUdp=65467
[2018.09.28-02.02.42:994][  0]LogMoviePlayer: Initializing movie player
[2018.09.28-02.02.43:041][  0]LogAndroidPermission: UAndroidPermissionCallbackProxy::GetInstance
[2018.09.28-02.02.43:041][  0]LogOcInput: OculusInput pre-init called
[2018.09.28-02.02.43:044][  0]LogUObjectArray: 30863 objects as part of root set at end of initial load.
[2018.09.28-02.02.43:044][  0]LogUObjectAllocator: 4287380 out of 0 bytes used by permanent object pool.
[2018.09.28-02.02.43:044][  0]LogUObjectArray: CloseDisregardForGC: 0/0 objects in disregard for GC pool
[2018.09.28-02.02.43:055][  0]LogEngine: Initializing Engine...
[2018.09.28-02.02.43:056][  0]LogHMD: Failed to initialize OpenVR with code 110
[2018.09.28-02.02.43:156][  0]LogStats: UGameplayTagsManager::ConstructGameplayTagTree: Construct from data asset -  0.000 s
[2018.09.28-02.02.43:156][  0]LogStats: UGameplayTagsManager::ConstructGameplayTagTree: GameplayTagTreeChangedEvent.Broadcast -  0.000 s
[2018.09.28-02.02.43:169][  0]LogInit: XAudio2 using 'Speakers (Realtek High Definition Audio)' : 6 channels at 48 kHz using 32 bits per sample (channel mask 0x3f)
[2018.09.28-02.02.43:226][  0]LogInit: FAudioDevice initialized.
[2018.09.28-02.02.43:237][  0]LogInit: Texture streaming: Enabled
[2018.09.28-02.02.43:242][  0]LogInit: Display: Game Engine Initialized.
[2018.09.28-02.02.43:243][  0]LogGameplayTags: Display: UGameplayTagsManager::DoneAddingNativeTags. DelegateIsBound: 0
[2018.09.28-02.02.43:250][  0]LogInit: Display: Starting Game.
[2018.09.28-02.02.43:250][  0]LogNet: Browse: /Game/ThirdPersonBP/Maps/ThirdPersonExampleMap?Name=Player
[2018.09.28-02.02.43:250][  0]LogLoad: LoadMap: /Game/ThirdPersonBP/Maps/ThirdPersonExampleMap?Name=Player
[2018.09.28-02.02.43:478][  0]LogAIModule: Creating AISystem for world ThirdPersonExampleMap
[2018.09.28-02.02.43:479][  0]LogLoad: Game class is 'ThirdPersonGameMode_C'
[2018.09.28-02.02.43:485][  0]LogWorld: Bringing World /Game/ThirdPersonBP/Maps/ThirdPersonExampleMap.ThirdPersonExampleMap up for play (max tick rate 0) at 2018.09.27-19.02.43
[2018.09.28-02.02.43:488][  0]LogWorld: Bringing up level for play took: 0.007920
[2018.09.28-02.02.43:489][  0]LogGameMode: FindPlayerStart: PATHS NOT DEFINED or NO PLAYERSTART with positive rating
[2018.09.28-02.02.43:490][  0]LogUMG: Display: Widget Class Scores_C - Loaded Fast Template.
[2018.09.28-02.02.43:491][  0]LogSlate: Took 0.000939 seconds to synchronously load lazily loaded font '../../../Engine/Content/EngineFonts/Faces/RobotoBold.ufont' (160K)
[2018.09.28-02.02.43:492][  0]LogLoad: Took 0.241409 seconds to LoadMap(/Game/ThirdPersonBP/Maps/ThirdPersonExampleMap)
[2018.09.28-02.02.43:531][  0]LogLoad: (Engine Initialization) Total time: 1.78 seconds
[2018.09.28-02.02.43:531][  0]LogExternalProfiler: No external profilers were discovered.  External profiling features will not be available.
[2018.09.28-02.02.43:581][  0]LogRenderer: Reallocating scene render targets to support 1536x864 Format 10 NumSamples 1 (Frame:1).
[2018.09.28-02.02.43:637][  0]LogContentStreaming: Texture pool size now 1000 MB
[2018.09.28-02.03.36:506][276]LogMaterial: Warning: Material /Game/StarterContent/Blueprints/Assets/M_LightStage_Skybox_Master.M_LightStage_Skybox_Master missing bUsedWithSkeletalMesh=True! Default Material will be used in game.
[2018.09.28-02.03.36:506][276]LogMaterial: Warning:      The material will recompile every editor launch until resaved.
[2018.09.28-02.03.44:505][772]LogNet: Browse: /Game/ThirdPersonBP/Maps/ThirdPersonExampleMap
[2018.09.28-02.03.44:510][772]LogLoad: LoadMap: /Game/ThirdPersonBP/Maps/ThirdPersonExampleMap
[2018.09.28-02.03.44:755][772]LogAIModule: Creating AISystem for world ThirdPersonExampleMap
[2018.09.28-02.03.44:756][772]LogLoad: Game class is 'ThirdPersonGameMode_C'
[2018.09.28-02.03.44:762][772]LogWorld: Bringing World /Game/ThirdPersonBP/Maps/ThirdPersonExampleMap.ThirdPersonExampleMap up for play (max tick rate 0) at 2018.09.27-19.03.44
[2018.09.28-02.03.44:765][772]LogWorld: Bringing up level for play took: 0.007569
[2018.09.28-02.03.44:766][772]LogGameMode: FindPlayerStart: PATHS NOT DEFINED or NO PLAYERSTART with positive rating
[2018.09.28-02.03.44:766][772]LogUMG: Display: Widget Class Scores_C - Loaded Fast Template.
[2018.09.28-02.03.44:769][772]LogLoad: Took 0.258317 seconds to LoadMap(/Game/ThirdPersonBP/Maps/ThirdPersonExampleMap)
[2018.09.28-02.04.31:696][679]LogMaterial: Warning: Material /Game/StarterContent/Blueprints/Assets/M_LightStage_Skybox_Master.M_LightStage_Skybox_Master missing bUsedWithSkeletalMesh=True! Default Material will be used in game.
[2018.09.28-02.04.31:696][679]LogMaterial: Warning:      The material will recompile every editor launch until resaved.
[2018.09.28-02.04.39:695][175]LogNet: Browse: /Game/ThirdPersonBP/Maps/ThirdPersonExampleMap
[2018.09.28-02.04.39:695][175]LogLoad: LoadMap: /Game/ThirdPersonBP/Maps/ThirdPersonExampleMap
[2018.09.28-02.04.39:939][175]LogAIModule: Creating AISystem for world ThirdPersonExampleMap
[2018.09.28-02.04.39:941][175]LogLoad: Game class is 'ThirdPersonGameMode_C'
[2018.09.28-02.04.39:945][175]LogWorld: Bringing World /Game/ThirdPersonBP/Maps/ThirdPersonExampleMap.ThirdPersonExampleMap up for play (max tick rate 0) at 2018.09.27-19.04.39
[2018.09.28-02.04.39:946][175]LogWorld: Bringing up level for play took: 0.004102
[2018.09.28-02.04.39:947][175]LogGameMode: FindPlayerStart: PATHS NOT DEFINED or NO PLAYERSTART with positive rating
[2018.09.28-02.04.39:947][175]LogUMG: Display: Widget Class Scores_C - Loaded Fast Template.
[2018.09.28-02.04.39:948][175]LogLoad: Took 0.252528 seconds to LoadMap(/Game/ThirdPersonBP/Maps/ThirdPersonExampleMap)
[2018.09.28-02.05.26:807][ 79]LogMaterial: Warning: Material /Game/StarterContent/Blueprints/Assets/M_LightStage_Skybox_Master.M_LightStage_Skybox_Master missing bUsedWithSkeletalMesh=True! Default Material will be used in game.
[2018.09.28-02.05.26:807][ 79]LogMaterial: Warning:      The material will recompile every editor launch until resaved.
[2018.09.28-02.05.34:806][575]LogNet: Browse: /Game/ThirdPersonBP/Maps/ThirdPersonExampleMap
[2018.09.28-02.05.34:807][575]LogLoad: LoadMap: /Game/ThirdPersonBP/Maps/ThirdPersonExampleMap
[2018.09.28-02.05.35:039][575]LogAIModule: Creating AISystem for world ThirdPersonExampleMap
[2018.09.28-02.05.35:040][575]LogLoad: Game class is 'ThirdPersonGameMode_C'
[2018.09.28-02.05.35:045][575]LogWorld: Bringing World /Game/ThirdPersonBP/Maps/ThirdPersonExampleMap.ThirdPersonExampleMap up for play (max tick rate 0) at 2018.09.27-19.05.35
[2018.09.28-02.05.35:047][575]LogWorld: Bringing up level for play took: 0.005898
[2018.09.28-02.05.35:047][575]LogGameMode: FindPlayerStart: PATHS NOT DEFINED or NO PLAYERSTART with positive rating
[2018.09.28-02.05.35:048][575]LogUMG: Display: Widget Class Scores_C - Loaded Fast Template.
[2018.09.28-02.05.35:048][575]LogLoad: Took 0.242234 seconds to LoadMap(/Game/ThirdPersonBP/Maps/ThirdPersonExampleMap)
[2018.09.28-02.05.36:603][671]LogSlate: Request Window 'BomberBoiz (32-bit, PCD3D_SM5)' being destroyed
[2018.09.28-02.05.36:628][671]LogSlate: Window 'BomberBoiz (32-bit, PCD3D_SM5)' being destroyed
[2018.09.28-02.05.36:629][671]LogWindowsTextInputMethodSystem: Display: IME system now deactivated.
[2018.09.28-02.05.36:632][671]LogEngine: All Windows Closed
[2018.09.28-02.05.36:632][671]LogWindows: FPlatformMisc::RequestExit(0)
[2018.09.28-02.05.37:150][672]LogExit: Preparing to exit.
[2018.09.28-02.05.37:150][672]LogMoviePlayer: Shutting down movie player
[2018.09.28-02.05.37:154][672]LogExit: Game engine shut down
[2018.09.28-02.05.37:174][672]LogExit: Object subsystem successfully closed.
[2018.09.28-02.05.37:181][672]LogD3D11RHI: Shutdown
[2018.09.28-02.05.37:181][672]LogD3D11RHI: CleanupD3DDevice
[2018.09.28-02.05.37:184][672]LogD3D11RHI: ~FD3D11DynamicRHI
[2018.09.28-02.05.37:184][672]LogModuleManager: Shutting down and abandoning module AutomationController (164)
[2018.09.28-02.05.37:184][672]LogModuleManager: Shutting down and abandoning module AutomationWorker (162)
[2018.09.28-02.05.37:184][672]LogModuleManager: Shutting down and abandoning module AIModule (160)
[2018.09.28-02.05.37:184][672]LogModuleManager: Shutting down and abandoning module GameplayDebugger (159)
[2018.09.28-02.05.37:184][672]LogModuleManager: Shutting down and abandoning module WmfMediaFactory (156)
[2018.09.28-02.05.37:184][672]LogModuleManager: Shutting down and abandoning module OpenExrWrapper (154)
[2018.09.28-02.05.37:184][672]LogModuleManager: Shutting down and abandoning module ImgMediaFactory (152)
[2018.09.28-02.05.37:184][672]LogModuleManager: Shutting down and abandoning module AvfMediaFactory (150)
[2018.09.28-02.05.37:184][672]LogModuleManager: Shutting down and abandoning module CharacterAI (148)
[2018.09.28-02.05.37:184][672]LogModuleManager: Shutting down and abandoning module SessionServices (146)
[2018.09.28-02.05.37:184][672]LogModuleManager: Shutting down and abandoning module MovieSceneTracks (144)
[2018.09.28-02.05.37:184][672]LogModuleManager: Shutting down and abandoning module MovieScene (142)
[2018.09.28-02.05.37:184][672]LogModuleManager: Shutting down and abandoning module GeometryCache (140)
[2018.09.28-02.05.37:184][672]LogModuleManager: Shutting down and abandoning module StreamingPauseRendering (138)
[2018.09.28-02.05.37:184][672]LogModuleManager: Shutting down and abandoning module AnalyticsET (136)
[2018.09.28-02.05.37:184][672]LogModuleManager: Shutting down and abandoning module ProfilerService (134)
[2018.09.28-02.05.37:402][672]LogModuleManager: Shutting down and abandoning module TaskGraph (132)
[2018.09.28-02.05.37:402][672]LogModuleManager: Shutting down and abandoning module SteamVRController (130)
[2018.09.28-02.05.37:402][672]LogModuleManager: Shutting down and abandoning module ProceduralMeshComponent (128)
[2018.09.28-02.05.37:402][672]LogModuleManager: Shutting down and abandoning module OculusInput (126)
[2018.09.28-02.05.37:402][672]LogModuleManager: Shutting down and abandoning module MobilePatchingUtils (124)
[2018.09.28-02.05.37:402][672]LogModuleManager: Shutting down and abandoning module CustomMeshComponent (122)
[2018.09.28-02.05.37:402][672]LogModuleManager: Shutting down and abandoning module CableComponent (120)
[2018.09.28-02.05.37:402][672]LogModuleManager: Shutting down and abandoning module ArchVisCharacter (118)
[2018.09.28-02.05.37:402][672]LogModuleManager: Shutting down and abandoning module AndroidPermission (116)
[2018.09.28-02.05.37:402][672]LogModuleManager: Shutting down and abandoning module ActorSequence (112)
[2018.09.28-02.05.37:402][672]LogModuleManager: Shutting down and abandoning module MediaCompositing (110)
[2018.09.28-02.05.37:402][672]LogModuleManager: Shutting down and abandoning module HTML5Networking (108)
[2018.09.28-02.05.37:402][672]LogModuleManager: Shutting down and abandoning module RuntimePhysXCooking (106)
[2018.09.28-02.05.37:402][672]LogModuleManager: Shutting down and abandoning module PhysXVehicles (104)
[2018.09.28-02.05.37:402][672]LogModuleManager: Shutting down and abandoning module LocationServicesBPLibrary (102)
[2018.09.28-02.05.37:402][672]LogModuleManager: Shutting down and abandoning module ImmediatePhysics (100)
[2018.09.28-02.05.37:402][672]LogModuleManager: Shutting down and abandoning module UdpMessaging (98)
[2018.09.28-02.05.37:402][672]LogModuleManager: Shutting down and abandoning module TcpMessaging (96)
[2018.09.28-02.05.37:402][672]LogModuleManager: Shutting down and abandoning module FacialAnimation (94)
[2018.09.28-02.05.37:403][672]LogModuleManager: Shutting down and abandoning module LightPropagationVolumeRuntime (92)
[2018.09.28-02.05.37:403][672]LogModuleManager: Shutting down and abandoning module Paper2D (90)
[2018.09.28-02.05.37:403][672]LogModuleManager: Shutting down and abandoning module WindowsMoviePlayer (88)
[2018.09.28-02.05.37:403][672]LogModuleManager: Shutting down and abandoning module WmfMedia (86)
[2018.09.28-02.05.37:403][672]LogModuleManager: Shutting down and abandoning module ImgMedia (84)
[2018.09.28-02.05.37:403][672]LogModuleManager: Shutting down and abandoning module PacketHandler (82)
[2018.09.28-02.05.37:403][672]LogModuleManager: Shutting down and abandoning module ClothingSystemRuntime (80)
[2018.09.28-02.05.37:403][672]LogModuleManager: Shutting down and abandoning module MediaAssets (78)
[2018.09.28-02.05.37:403][672]LogModuleManager: Shutting down and abandoning module Overlay (76)
[2018.09.28-02.05.37:403][672]LogModuleManager: Shutting down and abandoning module UMG (74)
[2018.09.28-02.05.37:403][672]LogModuleManager: Shutting down and abandoning module SlateReflector (72)
[2018.09.28-02.05.37:403][672]LogModuleManager: Shutting down and abandoning module Slate (70)
[2018.09.28-02.05.37:403][672]LogModuleManager: Shutting down and abandoning module MRMesh (68)
[2018.09.28-02.05.37:403][672]LogModuleManager: Shutting down and abandoning module Messaging (66)
[2018.09.28-02.05.37:403][672]LogModuleManager: Shutting down and abandoning module HeadMountedDisplay (64)
[2018.09.28-02.05.37:403][672]LogModuleManager: Shutting down and abandoning module XAudio2 (62)
[2018.09.28-02.05.37:403][672]LogModuleManager: Shutting down and abandoning module Networking (60)
[2018.09.28-02.05.37:404][672]LogModuleManager: Shutting down and abandoning module Core (56)
[2018.09.28-02.05.37:404][672]LogModuleManager: Shutting down and abandoning module LevelSequence (54)
[2018.09.28-02.05.37:404][672]LogModuleManager: Shutting down and abandoning module Media (52)
[2018.09.28-02.05.37:408][672]LogModuleManager: Shutting down and abandoning module ImageWrapper (48)
[2018.09.28-02.05.37:408][672]LogModuleManager: Shutting down and abandoning module InputCore (46)
[2018.09.28-02.05.37:408][672]LogModuleManager: Shutting down and abandoning module PhysXCooking (44)
[2018.09.28-02.05.37:408][672]LogModuleManager: Shutting down and abandoning module SteamVR (42)
[2018.09.28-02.05.37:408][672]LogModuleManager: Shutting down and abandoning module OculusHMD (40)
[2018.09.28-02.05.37:408][672]LogModuleManager: Shutting down and abandoning module ExampleDeviceProfileSelector (38)
[2018.09.28-02.05.37:408][672]LogModuleManager: Shutting down and abandoning module OnlineSubsystem (34)
[2018.09.28-02.05.37:408][672]LogModuleManager: Shutting down and abandoning module HTTP (33)
[2018.09.28-02.05.37:408][672]LogHttp: Display: Http module shutting down, but needs to wait on 1 outstanding Http requests:
[2018.09.28-02.05.37:408][672]LogHttp: Display: 	verb=[POST] url=[https://datarouter.ol.epicgames.com/datarouter/api/v1/public/data?SessionID=%7B38746CB0-4C6B-CD26-C96E-80BEFE3EDB1D%7D&AppID=UEGame.Rocket.Release%7C791D26074EB2E53CC83A74930846919D%7CThird%20Person%20BP%20Game%20Template&AppVersion=4.18.1-3754814%2B%2B%2BUE4%2BRelease-4.18&UserID=ANON-%7BF2C8D0FE-4398-AC5B-3144-2A856A87EC66%7D%7C%7C&AppEnvironment=datacollector-binary&UploadType=eteventstream] status=Processing
[2018.09.28-02.05.37:433][672]LogModuleManager: Shutting down and abandoning module SSL (32)
[2018.09.28-02.05.37:433][672]LogModuleManager: Shutting down and abandoning module ShaderCore (28)
[2018.09.28-02.05.37:433][672]LogModuleManager: Shutting down and abandoning module Landscape (26)
[2018.09.28-02.05.37:433][672]LogModuleManager: Shutting down and abandoning module SlateRHIRenderer (24)
[2018.09.28-02.05.37:433][672]LogModuleManager: Shutting down and abandoning module OpenGLDrv (22)
[2018.09.28-02.05.37:433][672]LogModuleManager: Shutting down and abandoning module D3D11RHI (20)
[2018.09.28-02.05.37:433][672]LogModuleManager: Shutting down and abandoning module AnimGraphRuntime (18)
[2018.09.28-02.05.37:433][672]LogModuleManager: Shutting down and abandoning module Renderer (16)
[2018.09.28-02.05.37:433][672]LogModuleManager: Shutting down and abandoning module Engine (14)
[2018.09.28-02.05.37:433][672]LogModuleManager: Shutting down and abandoning module CoreUObject (12)
[2018.09.28-02.05.37:433][672]LogModuleManager: Shutting down and abandoning module NetworkFile (10)
[2018.09.28-02.05.37:433][672]LogModuleManager: Shutting down and abandoning module CookedIterativeFile (8)
[2018.09.28-02.05.37:433][672]LogModuleManager: Shutting down and abandoning module StreamingFile (6)
[2018.09.28-02.05.37:433][672]LogModuleManager: Shutting down and abandoning module SandboxFile (4)
[2018.09.28-02.05.37:433][672]LogModuleManager: Shutting down and abandoning module PakFile (2)
[2018.09.28-02.05.37:435][672]LogExit: Exiting.
[2018.09.28-02.05.37:435][672]Log file closed, 09/27/18 19:05:37
